        -:    0:Source:slabs.c
        -:    0:Graph:slabs.gcno
        -:    0:Data:slabs.gcda
        -:    0:Runs:370
        -:    0:Programs:1
        -:    1:/* -*- Mode: C; tab-width: 4; c-basic-offset: 4; indent-tabs-mode: nil -*- */
        -:    2:/*
        -:    3: * Slabs memory allocation, based on powers-of-N. Slabs are up to 1MB in size
        -:    4: * and are divided into chunks. The chunk sizes start off at the size of the
        -:    5: * "item" structure plus space for a small key and value. They increase by
        -:    6: * a multiplier factor from there, up to half the maximum slab size. The last
        -:    7: * slab size is always 1MB, since that's the maximum item size allowed by the
        -:    8: * memcached protocol.
        -:    9: */
        -:   10:#include "memcached.h"
        -:   11:#include <sys/mman.h>
        -:   12:#include <sys/stat.h>
        -:   13:#include <sys/socket.h>
        -:   14:#include <sys/resource.h>
        -:   15:#include <fcntl.h>
        -:   16:#include <netinet/in.h>
        -:   17:#include <errno.h>
        -:   18:#include <stdlib.h>
        -:   19:#include <stdio.h>
        -:   20:#include <string.h>
        -:   21:#include <signal.h>
        -:   22:#include <assert.h>
        -:   23:#include <pthread.h>
        -:   24:
        -:   25://#define DEBUG_SLAB_MOVER
        -:   26:/* powers-of-N allocation structures */
        -:   27:
        -:   28:typedef struct {
        -:   29:    unsigned int size;      /* sizes of items */
        -:   30:    unsigned int perslab;   /* how many items per slab */
        -:   31:
        -:   32:    void *slots;           /* list of item ptrs */
        -:   33:    unsigned int sl_curr;   /* total free items in list */
        -:   34:
        -:   35:    unsigned int slabs;     /* how many slabs were allocated for this class */
        -:   36:
        -:   37:    void **slab_list;       /* array of slab pointers */
        -:   38:    unsigned int list_size; /* size of prev array */
        -:   39:} slabclass_t;
        -:   40:
        -:   41:static slabclass_t slabclass[MAX_NUMBER_OF_SLAB_CLASSES];
        -:   42:static size_t mem_limit = 0;
        -:   43:static size_t mem_malloced = 0;
        -:   44:/* If the memory limit has been hit once. Used as a hint to decide when to
        -:   45: * early-wake the LRU maintenance thread */
        -:   46:static bool mem_limit_reached = false;
        -:   47:static int power_largest;
        -:   48:
        -:   49:static void *mem_base = NULL;
        -:   50:static void *mem_current = NULL;
        -:   51:static size_t mem_avail = 0;
        -:   52:#ifdef EXTSTORE
        -:   53:static void *storage  = NULL;
        -:   54:#endif
        -:   55:/**
        -:   56: * Access to the slab allocator is protected by this lock
        -:   57: */
        -:   58:static pthread_mutex_t slabs_lock = PTHREAD_MUTEX_INITIALIZER;
        -:   59:static pthread_mutex_t slabs_rebalance_lock = PTHREAD_MUTEX_INITIALIZER;
        -:   60:
        -:   61:/*
        -:   62: * Forward Declarations
        -:   63: */
        -:   64:static int grow_slab_list (const unsigned int id);
        -:   65:static int do_slabs_newslab(const unsigned int id);
        -:   66:static void *memory_allocate(size_t size);
        -:   67:static void do_slabs_free(void *ptr, const size_t size, unsigned int id);
        -:   68:
        -:   69:/* Preallocate as many slab pages as possible (called from slabs_init)
        -:   70:   on start-up, so users don't get confused out-of-memory errors when
        -:   71:   they do have free (in-slab) space, but no space to make new slabs.
        -:   72:   if maxslabs is 18 (POWER_LARGEST - POWER_SMALLEST + 1), then all
        -:   73:   slab types can be made.  if max memory is less than 18 MB, only the
        -:   74:   smaller ones will be made.  */
        -:   75:static void slabs_preallocate (const unsigned int maxslabs);
        -:   76:#ifdef EXTSTORE
      107:   77:void slabs_set_storage(void *arg) {
      107:   78:    storage = arg;
      107:   79:}
        -:   80:#endif
        -:   81:/*
        -:   82: * Figures out which slab class (chunk size) is required to store an item of
        -:   83: * a given size.
        -:   84: *
        -:   85: * Given object size, return id to use when allocating/freeing memory for object
        -:   86: * 0 means error: can't store such a large object
        -:   87: */
        -:   88:
   461802:   89:unsigned int slabs_clsid(const size_t size) {
   461802:   90:    int res = POWER_SMALLEST;
        -:   91:
   461802:   92:    if (size == 0 || size > settings.item_size_max)
        -:   93:        return 0;
  4671762:   94:    while (size > slabclass[res].size)
  4231634:   95:        if (res++ == power_largest)     /* won't fit in the biggest slab */
    21666:   96:            return power_largest;
   440128:   97:    return res;
        -:   98:}
        -:   99:
       22:  100:unsigned int slabs_size(const int clsid) {
       22:  101:    return slabclass[clsid].size;
        -:  102:}
        -:  103:
        -:  104:// TODO: could this work with the restartable memory?
        -:  105:// Docs say hugepages only work with private shm allocs.
        -:  106:/* Function split out for better error path handling */
    #####:  107:static void * alloc_large_chunk(const size_t limit)
        -:  108:{
    #####:  109:    void *ptr = NULL;
        -:  110:#if defined(__linux__) && defined(MADV_HUGEPAGE)
    #####:  111:    size_t pagesize = 0;
        -:  112:    FILE *fp;
        -:  113:    int ret;
        -:  114:
        -:  115:    /* Get the size of huge pages */
    #####:  116:    fp = fopen("/proc/meminfo", "r");
    #####:  117:    if (fp != NULL) {
        -:  118:        char buf[64];
        -:  119:
    #####:  120:        while ((fgets(buf, sizeof(buf), fp)))
    #####:  121:            if (!strncmp(buf, "Hugepagesize:", 13)) {
    #####:  122:                ret = sscanf(buf + 13, "%zu\n", &pagesize);
        -:  123:
        -:  124:                /* meminfo huge page size is in KiBs */
    #####:  125:                pagesize <<= 10;
        -:  126:            }
    #####:  127:        fclose(fp);
        -:  128:    }
        -:  129:
    #####:  130:    if (!pagesize) {
    #####:  131:        fprintf(stderr, "Failed to get supported huge page size\n");
    #####:  132:        return NULL;
        -:  133:    }
        -:  134:
    #####:  135:    if (settings.verbose > 1)
    #####:  136:        fprintf(stderr, "huge page size: %zu\n", pagesize);
        -:  137:
        -:  138:    /* This works because glibc simply uses mmap when the alignment is
        -:  139:     * above a certain limit. */
    #####:  140:    ret = posix_memalign(&ptr, pagesize, limit);
    #####:  141:    if (ret != 0) {
    #####:  142:        fprintf(stderr, "Failed to get aligned memory chunk: %d\n", ret);
    #####:  143:        return NULL;
        -:  144:    }
        -:  145:
    #####:  146:    ret = madvise(ptr, limit, MADV_HUGEPAGE);
    #####:  147:    if (ret < 0) {
    #####:  148:        fprintf(stderr, "Failed to set transparent hugepage hint: %d\n", ret);
    #####:  149:        free(ptr);
    #####:  150:        ptr = NULL;
        -:  151:    }
        -:  152:#elif defined(__FreeBSD__)
        -:  153:    size_t align = (sizeof(size_t) * 8 - (__builtin_clzl(4095)));
        -:  154:    ptr = mmap(NULL, limit, PROT_READ | PROT_WRITE, MAP_SHARED | MAP_ANON | MAP_ALIGNED(align) | MAP_ALIGNED_SUPER, -1, 0);
        -:  155:    if (ptr == MAP_FAILED) {
        -:  156:        fprintf(stderr, "Failed to set super pages\n");
        -:  157:        ptr = NULL;
        -:  158:    }
        -:  159:#else
        -:  160:    ptr = malloc(limit);
        -:  161:#endif
        -:  162:    return ptr;
        -:  163:}
        -:  164:
   184560:  165:unsigned int slabs_fixup(char *chunk, const int border) {
        -:  166:    slabclass_t *p;
   184560:  167:    item *it = (item *)chunk;
   184560:  168:    int id = ITEM_clsid(it);
        -:  169:
        -:  170:    // memory isn't used yet. shunt to global pool.
        -:  171:    // (which must be 0)
   184560:  172:    if (id == 0) {
        -:  173:        //assert(border == 0);
       61:  174:        p = &slabclass[0];
       61:  175:        grow_slab_list(0);
       61:  176:        p->slab_list[p->slabs++] = (char*)chunk;
       61:  177:        return -1;
        -:  178:    }
   184499:  179:    p = &slabclass[id];
        -:  180:
        -:  181:    // if we're on a page border, add the slab to slab class
   184499:  182:    if (border == 0) {
       67:  183:        grow_slab_list(id);
       67:  184:        p->slab_list[p->slabs++] = chunk;
        -:  185:    }
        -:  186:
        -:  187:    // increase free count if ITEM_SLABBED
   184499:  188:    if (it->it_flags == ITEM_SLABBED) {
        -:  189:        // if ITEM_SLABBED re-stack on freelist.
        -:  190:        // don't have to run pointer fixups.
   184412:  191:        it->prev = 0;
   184412:  192:        it->next = p->slots;
   184412:  193:        if (it->next) it->next->prev = it;
   184412:  194:        p->slots = it;
        -:  195:
   184412:  196:        p->sl_curr++;
        -:  197:        //fprintf(stderr, "replacing into freelist\n");
        -:  198:    }
        -:  199:
   184499:  200:    return p->size;
        -:  201:}
        -:  202:
        -:  203:/**
        -:  204: * Determines the chunk sizes and initializes the slab class descriptors
        -:  205: * accordingly.
        -:  206: */
      107:  207:void slabs_init(const size_t limit, const double factor, const bool prealloc, const uint32_t *slab_sizes, void *mem_base_external, bool reuse_mem) {
      107:  208:    int i = POWER_SMALLEST - 1;
      107:  209:    unsigned int size = sizeof(item) + settings.chunk_size;
        -:  210:
        -:  211:    /* Some platforms use runtime transparent hugepages. If for any reason
        -:  212:     * the initial allocation fails, the required settings do not persist
        -:  213:     * for remaining allocations. As such it makes little sense to do slab
        -:  214:     * preallocation. */
      107:  215:    bool __attribute__ ((unused)) do_slab_prealloc = false;
        -:  216:
      107:  217:    mem_limit = limit;
        -:  218:
      107:  219:    if (prealloc && mem_base_external == NULL) {
    #####:  220:        mem_base = alloc_large_chunk(mem_limit);
    #####:  221:        if (mem_base) {
    #####:  222:            do_slab_prealloc = true;
    #####:  223:            mem_current = mem_base;
    #####:  224:            mem_avail = mem_limit;
        -:  225:        } else {
    #####:  226:            fprintf(stderr, "Warning: Failed to allocate requested memory in"
        -:  227:                    " one large chunk.\nWill allocate in smaller chunks\n");
        -:  228:        }
      107:  229:    } else if (prealloc && mem_base_external != NULL) {
        -:  230:        // Can't (yet) mix hugepages with mmap allocations, so separate the
        -:  231:        // logic from above. Reusable memory also force-preallocates memory
        -:  232:        // pages into the global pool, which requires turning mem_* variables.
        2:  233:        do_slab_prealloc = true;
        2:  234:        mem_base = mem_base_external;
        -:  235:        // _current shouldn't be used in this case, but we set it to where it
        -:  236:        // should be anyway.
        2:  237:        if (reuse_mem) {
        1:  238:            mem_current = ((char*)mem_base) + mem_limit;
        1:  239:            mem_avail = 0;
        -:  240:        } else {
        1:  241:            mem_current = mem_base;
        1:  242:            mem_avail = mem_limit;
        -:  243:        }
        -:  244:    }
        -:  245:
        -:  246:    memset(slabclass, 0, sizeof(slabclass));
        -:  247:
     4071:  248:    while (++i < MAX_NUMBER_OF_SLAB_CLASSES-1) {
     4071:  249:        if (slab_sizes != NULL) {
    #####:  250:            if (slab_sizes[i-1] == 0)
        -:  251:                break;
        -:  252:            size = slab_sizes[i-1];
     4071:  253:        } else if (size >= settings.slab_chunk_size_max / factor) {
        -:  254:            break;
        -:  255:        }
        -:  256:        /* Make sure items are always n-byte aligned */
     3964:  257:        if (size % CHUNK_ALIGN_BYTES)
     2605:  258:            size += CHUNK_ALIGN_BYTES - (size % CHUNK_ALIGN_BYTES);
        -:  259:
     3964:  260:        slabclass[i].size = size;
     3964:  261:        slabclass[i].perslab = settings.slab_page_size / slabclass[i].size;
     3964:  262:        if (slab_sizes == NULL)
     3964:  263:            size *= factor;
     3964:  264:        if (settings.verbose > 1) {
      114:  265:            fprintf(stderr, "slab class %3d: chunk size %9u perslab %7u\n",
        -:  266:                    i, slabclass[i].size, slabclass[i].perslab);
        -:  267:        }
        -:  268:    }
        -:  269:
      107:  270:    power_largest = i;
      107:  271:    slabclass[power_largest].size = settings.slab_chunk_size_max;
      107:  272:    slabclass[power_largest].perslab = settings.slab_page_size / settings.slab_chunk_size_max;
      107:  273:    if (settings.verbose > 1) {
        3:  274:        fprintf(stderr, "slab class %3d: chunk size %9u perslab %7u\n",
        -:  275:                i, slabclass[i].size, slabclass[i].perslab);
        -:  276:    }
        -:  277:
        -:  278:    /* for the test suite:  faking of how much we've already malloc'd */
        -:  279:    {
      107:  280:        char *t_initial_malloc = getenv("T_MEMD_INITIAL_MALLOC");
      107:  281:        if (t_initial_malloc) {
        -:  282:            int64_t env_malloced;
        1:  283:            if (safe_strtoll((const char *)t_initial_malloc, &env_malloced)) {
        1:  284:                mem_malloced = (size_t)env_malloced;
        -:  285:            }
        -:  286:        }
        -:  287:
        -:  288:    }
        -:  289:
      107:  290:    if (do_slab_prealloc) {
        2:  291:        if (!reuse_mem) {
        1:  292:            slabs_preallocate(power_largest);
        -:  293:        }
        -:  294:    }
      107:  295:}
        -:  296:
        9:  297:void slabs_prefill_global(void) {
        -:  298:    void *ptr;
        9:  299:    slabclass_t *p = &slabclass[0];
        9:  300:    int len = settings.slab_page_size;
        -:  301:
      939:  302:    while (mem_malloced < mem_limit
      922:  303:            && (ptr = memory_allocate(len)) != NULL) {
      921:  304:        grow_slab_list(0);
        -:  305:        // Ensure the front header is zero'd to avoid confusing restart code.
        -:  306:        // It's probably good enough to cast it and just zero slabs_clsid, but
        -:  307:        // this is extra paranoid.
      921:  308:        memset(ptr, 0, sizeof(item));
      921:  309:        p->slab_list[p->slabs++] = ptr;
        -:  310:    }
        9:  311:    mem_limit_reached = true;
        9:  312:}
        -:  313:
        1:  314:static void slabs_preallocate (const unsigned int maxslabs) {
        -:  315:    int i;
        1:  316:    unsigned int prealloc = 0;
        -:  317:
        -:  318:    /* pre-allocate a 1MB slab in every size class so people don't get
        -:  319:       confused by non-intuitive "SERVER_ERROR out of memory"
        -:  320:       messages.  this is the most common question on the mailing
        -:  321:       list.  if you really don't want this, you can rebuild without
        -:  322:       these three lines.  */
        -:  323:
       40:  324:    for (i = POWER_SMALLEST; i < MAX_NUMBER_OF_SLAB_CLASSES; i++) {
       40:  325:        if (++prealloc > maxslabs)
        -:  326:            break;
       39:  327:        if (do_slabs_newslab(i) == 0) {
    #####:  328:            fprintf(stderr, "Error while preallocating slab memory!\n"
        -:  329:                "If using -L or other prealloc options, max memory must be "
        -:  330:                "at least %d megabytes.\n", power_largest);
    #####:  331:            exit(1);
        -:  332:        }
        -:  333:    }
        1:  334:}
        -:  335:
     2463:  336:static int grow_slab_list (const unsigned int id) {
     2463:  337:    slabclass_t *p = &slabclass[id];
     2463:  338:    if (p->slabs == p->list_size) {
      335:  339:        size_t new_size =  (p->list_size != 0) ? p->list_size * 2 : 16;
      335:  340:        void *new_list = realloc(p->slab_list, new_size * sizeof(void *));
      335:  341:        if (new_list == 0) return 0;
      335:  342:        p->list_size = new_size;
      335:  343:        p->slab_list = new_list;
        -:  344:    }
        -:  345:    return 1;
        -:  346:}
        -:  347:
        -:  348:static void split_slab_page_into_freelist(char *ptr, const unsigned int id) {
        -:  349:    slabclass_t *p = &slabclass[id];
        -:  350:    int x;
  1623823:  351:    for (x = 0; x < p->perslab; x++) {
  1623823:  352:        do_slabs_free(ptr, 0, id);
  1623823:  353:        ptr += p->size;
        -:  354:    }
        -:  355:}
        -:  356:
        -:  357:/* Fast FIFO queue */
        -:  358:static void *get_page_from_global_pool(void) {
     1225:  359:    slabclass_t *p = &slabclass[SLAB_GLOBAL_PAGE_POOL];
     1225:  360:    if (p->slabs < 1) {
        -:  361:        return NULL;
        -:  362:    }
      487:  363:    char *ret = p->slab_list[p->slabs - 1];
      487:  364:    p->slabs--;
        -:  365:    return ret;
        -:  366:}
        -:  367:
    28859:  368:static int do_slabs_newslab(const unsigned int id) {
    28859:  369:    slabclass_t *p = &slabclass[id];
    28859:  370:    slabclass_t *g = &slabclass[SLAB_GLOBAL_PAGE_POOL];
    57928:  371:    int len = (settings.slab_reassign || settings.slab_chunk_size_max != settings.slab_page_size)
        -:  372:        ? settings.slab_page_size
    57511:  373:        : p->size * p->perslab;
        -:  374:    char *ptr;
        -:  375:
    28859:  376:    if ((mem_limit && mem_malloced + len > mem_limit && p->slabs > 0
    28077:  377:         && g->slabs == 0)) {
    27644:  378:        mem_limit_reached = true;
        -:  379:        MEMCACHED_SLABS_SLABCLASS_ALLOCATE_FAILED(id);
    27644:  380:        return 0;
        -:  381:    }
        -:  382:
     1697:  383:    if ((grow_slab_list(id) == 0) ||
      733:  384:        (((ptr = get_page_from_global_pool()) == NULL) &&
      733:  385:        ((ptr = memory_allocate((size_t)len)) == 0))) {
        -:  386:
        -:  387:        MEMCACHED_SLABS_SLABCLASS_ALLOCATE_FAILED(id);
        -:  388:        return 0;
        -:  389:    }
        -:  390:
        -:  391:    // Always wipe the memory at this stage: in restart mode the mmap memory
        -:  392:    // could be unused, yet still full of data. Better for usability if we're
        -:  393:    // wiping memory as it's being pulled out of the global pool instead of
        -:  394:    // blocking startup all at once.
     1215:  395:    memset(ptr, 0, (size_t)len);
     1215:  396:    split_slab_page_into_freelist(ptr, id);
        -:  397:
     1215:  398:    p->slab_list[p->slabs++] = ptr;
        -:  399:    MEMCACHED_SLABS_SLABCLASS_ALLOCATE(id);
        -:  400:
     1215:  401:    return 1;
        -:  402:}
        -:  403:
        -:  404:/*@null@*/
   468238:  405:static void *do_slabs_alloc(const size_t size, unsigned int id,
        -:  406:        unsigned int flags) {
        -:  407:    slabclass_t *p;
   468238:  408:    void *ret = NULL;
   468238:  409:    item *it = NULL;
        -:  410:
   468238:  411:    if (id < POWER_SMALLEST || id > power_largest) {
        -:  412:        MEMCACHED_SLABS_ALLOCATE_FAILED(size, 0);
        -:  413:        return NULL;
        -:  414:    }
   468238:  415:    p = &slabclass[id];
   468238:  416:    assert(p->sl_curr == 0 || (((item *)p->slots)->it_flags & ITEM_SLABBED));
        -:  417:
   468238:  418:    assert(size <= p->size);
        -:  419:    /* fail unless we have space at the end of a recently allocated page,
        -:  420:       we have something on our freelist, or we could allocate a new page */
   468238:  421:    if (p->sl_curr == 0 && flags != SLABS_ALLOC_NO_NEWPAGE) {
    28820:  422:        do_slabs_newslab(id);
        -:  423:    }
        -:  424:
   468238:  425:    if (p->sl_curr != 0) {
        -:  426:        /* return off our freelist */
   440167:  427:        it = (item *)p->slots;
   440167:  428:        p->slots = it->next;
   440167:  429:        if (it->next) it->next->prev = 0;
        -:  430:        /* Kill flag and initialize refcount here for lock safety in slab
        -:  431:         * mover's freeness detection. */
   440167:  432:        it->it_flags &= ~ITEM_SLABBED;
   440167:  433:        it->refcount = 1;
   440167:  434:        p->sl_curr--;
   440167:  435:        ret = (void *)it;
        -:  436:    } else {
        -:  437:        ret = NULL;
        -:  438:    }
        -:  439:
        -:  440:    if (ret) {
        -:  441:        MEMCACHED_SLABS_ALLOCATE(size, id, p->size, ret);
        -:  442:    } else {
        -:  443:        MEMCACHED_SLABS_ALLOCATE_FAILED(size, id);
        -:  444:    }
        -:  445:
        -:  446:    return ret;
        -:  447:}
        -:  448:
    17789:  449:static void do_slabs_free_chunked(item *it, const size_t size) {
    17789:  450:    item_chunk *chunk = (item_chunk *) ITEM_schunk(it);
        -:  451:    slabclass_t *p;
        -:  452:
    17789:  453:    it->it_flags = ITEM_SLABBED;
        -:  454:    // FIXME: refresh on how this works?
        -:  455:    //it->slabs_clsid = 0;
    17789:  456:    it->prev = 0;
        -:  457:    // header object's original classid is stored in chunk.
    17789:  458:    p = &slabclass[chunk->orig_clsid];
        -:  459:    // original class id needs to be set on free memory.
    17789:  460:    it->slabs_clsid = chunk->orig_clsid;
    17789:  461:    if (chunk->next) {
    17789:  462:        chunk = chunk->next;
    17789:  463:        chunk->prev = 0;
        -:  464:    } else {
        -:  465:        // header with no attached chunk
        -:  466:        chunk = NULL;
        -:  467:    }
        -:  468:
        -:  469:    // return the header object.
        -:  470:    // TODO: This is in three places, here and in do_slabs_free().
    17789:  471:    it->prev = 0;
    17789:  472:    it->next = p->slots;
    17789:  473:    if (it->next) it->next->prev = it;
    17789:  474:    p->slots = it;
    17789:  475:    p->sl_curr++;
        -:  476:
        -:  477:    item_chunk *next_chunk;
   148627:  478:    while (chunk) {
   130838:  479:        assert(chunk->it_flags == ITEM_CHUNK);
   130838:  480:        chunk->it_flags = ITEM_SLABBED;
   130838:  481:        p = &slabclass[chunk->slabs_clsid];
   130838:  482:        next_chunk = chunk->next;
        -:  483:
   130838:  484:        chunk->prev = 0;
   130838:  485:        chunk->next = p->slots;
   130838:  486:        if (chunk->next) chunk->next->prev = chunk;
   130838:  487:        p->slots = chunk;
   130838:  488:        p->sl_curr++;
        -:  489:
   130838:  490:        chunk = next_chunk;
        -:  491:    }
        -:  492:
    17789:  493:    return;
        -:  494:}
        -:  495:
        -:  496:
  1867235:  497:static void do_slabs_free(void *ptr, const size_t size, unsigned int id) {
        -:  498:    slabclass_t *p;
        -:  499:    item *it;
        -:  500:
  1867235:  501:    assert(id >= POWER_SMALLEST && id <= power_largest);
        -:  502:    if (id < POWER_SMALLEST || id > power_largest)
        -:  503:        return;
        -:  504:
        -:  505:    MEMCACHED_SLABS_FREE(size, id, ptr);
  1867235:  506:    p = &slabclass[id];
        -:  507:
  1867235:  508:    it = (item *)ptr;
  1867235:  509:    if ((it->it_flags & ITEM_CHUNKED) == 0) {
  1849446:  510:        it->it_flags = ITEM_SLABBED;
  1849446:  511:        it->slabs_clsid = id;
  1849446:  512:        it->prev = 0;
  1849446:  513:        it->next = p->slots;
  1849446:  514:        if (it->next) it->next->prev = it;
  1849446:  515:        p->slots = it;
        -:  516:
  1849446:  517:        p->sl_curr++;
        -:  518:    } else {
    17789:  519:        do_slabs_free_chunked(it, size);
        -:  520:    }
        -:  521:    return;
        -:  522:}
        -:  523:
        -:  524:/* With refactoring of the various stats code the automover won't need a
        -:  525: * custom function here.
        -:  526: */
      539:  527:void fill_slab_stats_automove(slab_stats_automove *am) {
        -:  528:    int n;
      539:  529:    pthread_mutex_lock(&slabs_lock);
    35035:  530:    for (n = 0; n < MAX_NUMBER_OF_SLAB_CLASSES; n++) {
    34496:  531:        slabclass_t *p = &slabclass[n];
    34496:  532:        slab_stats_automove *cur = &am[n];
    34496:  533:        cur->chunks_per_page = p->perslab;
    34496:  534:        cur->free_chunks = p->sl_curr;
    34496:  535:        cur->total_pages = p->slabs;
    34496:  536:        cur->chunk_size = p->size;
        -:  537:    }
      539:  538:    pthread_mutex_unlock(&slabs_lock);
      539:  539:}
        -:  540:
        -:  541:/* TODO: slabs_available_chunks should grow up to encompass this.
        -:  542: * mem_flag is redundant with the other function.
        -:  543: */
     1852:  544:unsigned int global_page_pool_size(bool *mem_flag) {
     1852:  545:    unsigned int ret = 0;
     1852:  546:    pthread_mutex_lock(&slabs_lock);
     1852:  547:    if (mem_flag != NULL)
       30:  548:        *mem_flag = mem_malloced >= mem_limit ? true : false;
     1852:  549:    ret = slabclass[SLAB_GLOBAL_PAGE_POOL].slabs;
     1852:  550:    pthread_mutex_unlock(&slabs_lock);
     1852:  551:    return ret;
        -:  552:}
        -:  553:
        -:  554:/*@null@*/
       29:  555:static void do_slabs_stats(ADD_STAT add_stats, void *c) {
        -:  556:    int i, total;
        -:  557:    /* Get the per-thread stats which contain some interesting aggregates */
        -:  558:    struct thread_stats thread_stats;
       29:  559:    threadlocal_stats_aggregate(&thread_stats);
        -:  560:
       29:  561:    total = 0;
     1150:  562:    for(i = POWER_SMALLEST; i <= power_largest; i++) {
     1121:  563:        slabclass_t *p = &slabclass[i];
     1121:  564:        if (p->slabs != 0) {
        -:  565:            uint32_t perslab, slabs;
       79:  566:            slabs = p->slabs;
       79:  567:            perslab = p->perslab;
        -:  568:
        -:  569:            char key_str[STAT_KEY_LEN];
        -:  570:            char val_str[STAT_VAL_LEN];
       79:  571:            int klen = 0, vlen = 0;
        -:  572:
      158:  573:            APPEND_NUM_STAT(i, "chunk_size", "%u", p->size);
      158:  574:            APPEND_NUM_STAT(i, "chunks_per_page", "%u", perslab);
      158:  575:            APPEND_NUM_STAT(i, "total_pages", "%u", slabs);
      158:  576:            APPEND_NUM_STAT(i, "total_chunks", "%u", slabs * perslab);
      158:  577:            APPEND_NUM_STAT(i, "used_chunks", "%u",
        -:  578:                            slabs*perslab - p->sl_curr);
      158:  579:            APPEND_NUM_STAT(i, "free_chunks", "%u", p->sl_curr);
        -:  580:            /* Stat is dead, but displaying zero instead of removing it. */
      158:  581:            APPEND_NUM_STAT(i, "free_chunks_end", "%u", 0);
      158:  582:            APPEND_NUM_STAT(i, "get_hits", "%llu",
        -:  583:                    (unsigned long long)thread_stats.slab_stats[i].get_hits);
      158:  584:            APPEND_NUM_STAT(i, "cmd_set", "%llu",
        -:  585:                    (unsigned long long)thread_stats.slab_stats[i].set_cmds);
      158:  586:            APPEND_NUM_STAT(i, "delete_hits", "%llu",
        -:  587:                    (unsigned long long)thread_stats.slab_stats[i].delete_hits);
      158:  588:            APPEND_NUM_STAT(i, "incr_hits", "%llu",
        -:  589:                    (unsigned long long)thread_stats.slab_stats[i].incr_hits);
      158:  590:            APPEND_NUM_STAT(i, "decr_hits", "%llu",
        -:  591:                    (unsigned long long)thread_stats.slab_stats[i].decr_hits);
      158:  592:            APPEND_NUM_STAT(i, "cas_hits", "%llu",
        -:  593:                    (unsigned long long)thread_stats.slab_stats[i].cas_hits);
      158:  594:            APPEND_NUM_STAT(i, "cas_badval", "%llu",
        -:  595:                    (unsigned long long)thread_stats.slab_stats[i].cas_badval);
      158:  596:            APPEND_NUM_STAT(i, "touch_hits", "%llu",
        -:  597:                    (unsigned long long)thread_stats.slab_stats[i].touch_hits);
       79:  598:            total++;
        -:  599:        }
        -:  600:    }
        -:  601:
        -:  602:    /* add overall slab stats and append terminator */
        -:  603:
       29:  604:    APPEND_STAT("active_slabs", "%d", total);
       29:  605:    APPEND_STAT("total_malloced", "%llu", (unsigned long long)mem_malloced);
       29:  606:    add_stats(NULL, 0, NULL, 0, c);
       29:  607:}
        -:  608:
     1655:  609:static void *memory_allocate(size_t size) {
        -:  610:    void *ret;
        -:  611:
     1655:  612:    if (mem_base == NULL) {
        -:  613:        /* We are not using a preallocated large memory chunk */
     1526:  614:        ret = malloc(size);
        -:  615:    } else {
      129:  616:        ret = mem_current;
        -:  617:
      129:  618:        if (size > mem_avail) {
        -:  619:            return NULL;
        -:  620:        }
        -:  621:
        -:  622:        /* mem_current pointer _must_ be aligned!!! */
      128:  623:        if (size % CHUNK_ALIGN_BYTES) {
    #####:  624:            size += CHUNK_ALIGN_BYTES - (size % CHUNK_ALIGN_BYTES);
        -:  625:        }
        -:  626:
      128:  627:        mem_current = ((char*)mem_current) + size;
      128:  628:        if (size < mem_avail) {
      127:  629:            mem_avail -= size;
        -:  630:        } else {
        1:  631:            mem_avail = 0;
        -:  632:        }
        -:  633:    }
     1654:  634:    mem_malloced += size;
        -:  635:
     1654:  636:    return ret;
        -:  637:}
        -:  638:
        -:  639:/* Must only be used if all pages are item_size_max */
      139:  640:static void memory_release() {
      139:  641:    void *p = NULL;
      139:  642:    if (mem_base != NULL)
        -:  643:        return;
        -:  644:
      128:  645:    if (!settings.slab_reassign)
        -:  646:        return;
        -:  647:
      138:  648:    while (mem_malloced > mem_limit &&
        -:  649:            (p = get_page_from_global_pool()) != NULL) {
        5:  650:        free(p);
        5:  651:        mem_malloced -= settings.slab_page_size;
        -:  652:    }
        -:  653:}
        -:  654:
   466183:  655:void *slabs_alloc(size_t size, unsigned int id,
        -:  656:        unsigned int flags) {
        -:  657:    void *ret;
        -:  658:
   466183:  659:    pthread_mutex_lock(&slabs_lock);
   466183:  660:    ret = do_slabs_alloc(size, id, flags);
   466183:  661:    pthread_mutex_unlock(&slabs_lock);
   466183:  662:    return ret;
        -:  663:}
        -:  664:
   243156:  665:void slabs_free(void *ptr, size_t size, unsigned int id) {
   243412:  666:    pthread_mutex_lock(&slabs_lock);
   243412:  667:    do_slabs_free(ptr, size, id);
   243412:  668:    pthread_mutex_unlock(&slabs_lock);
   243156:  669:}
        -:  670:
       29:  671:void slabs_stats(ADD_STAT add_stats, void *c) {
       29:  672:    pthread_mutex_lock(&slabs_lock);
       29:  673:    do_slabs_stats(add_stats, c);
       29:  674:    pthread_mutex_unlock(&slabs_lock);
       29:  675:}
        -:  676:
        -:  677:static bool do_slabs_adjust_mem_limit(size_t new_mem_limit) {
        -:  678:    /* Cannot adjust memory limit at runtime if prealloc'ed */
        3:  679:    if (mem_base != NULL)
        -:  680:        return false;
        3:  681:    settings.maxbytes = new_mem_limit;
        3:  682:    mem_limit = new_mem_limit;
        3:  683:    mem_limit_reached = false; /* Will reset on next alloc */
        3:  684:    memory_release(); /* free what might already be in the global pool */
        -:  685:    return true;
        -:  686:}
        -:  687:
        3:  688:bool slabs_adjust_mem_limit(size_t new_mem_limit) {
        -:  689:    bool ret;
        3:  690:    pthread_mutex_lock(&slabs_lock);
        3:  691:    ret = do_slabs_adjust_mem_limit(new_mem_limit);
        3:  692:    pthread_mutex_unlock(&slabs_lock);
        3:  693:    return ret;
        -:  694:}
        -:  695:
   321206:  696:unsigned int slabs_available_chunks(const unsigned int id, bool *mem_flag,
        -:  697:        unsigned int *chunks_perslab) {
        -:  698:    unsigned int ret;
        -:  699:    slabclass_t *p;
        -:  700:
   321206:  701:    pthread_mutex_lock(&slabs_lock);
   321206:  702:    p = &slabclass[id];
   321206:  703:    ret = p->sl_curr;
   321206:  704:    if (mem_flag != NULL)
    33336:  705:        *mem_flag = mem_malloced >= mem_limit ? true : false;
   321206:  706:    if (chunks_perslab != NULL)
   287870:  707:        *chunks_perslab = p->perslab;
   321206:  708:    pthread_mutex_unlock(&slabs_lock);
   321206:  709:    return ret;
        -:  710:}
        -:  711:
        -:  712:/* The slabber system could avoid needing to understand much, if anything,
        -:  713: * about items if callbacks were strategically used. Due to how the slab mover
        -:  714: * works, certain flag bits can only be adjusted while holding the slabs lock.
        -:  715: * Using these functions, isolate sections of code needing this and turn them
        -:  716: * into callbacks when an interface becomes more obvious.
        -:  717: */
   143957:  718:void slabs_mlock(void) {
   143957:  719:    pthread_mutex_lock(&slabs_lock);
   143957:  720:}
        -:  721:
   143957:  722:void slabs_munlock(void) {
   143957:  723:    pthread_mutex_unlock(&slabs_lock);
   143957:  724:}
        -:  725:
        -:  726:static pthread_cond_t slab_rebalance_cond = PTHREAD_COND_INITIALIZER;
        -:  727:static volatile int do_run_slab_rebalance_thread = 1;
        -:  728:
      199:  729:static int slab_rebalance_start(void) {
        -:  730:    slabclass_t *s_cls;
      199:  731:    int no_go = 0;
        -:  732:
      199:  733:    pthread_mutex_lock(&slabs_lock);
        -:  734:
      398:  735:    if (slab_rebal.s_clsid < SLAB_GLOBAL_PAGE_POOL ||
      398:  736:        slab_rebal.s_clsid > power_largest  ||
      398:  737:        slab_rebal.d_clsid < SLAB_GLOBAL_PAGE_POOL ||
      199:  738:        slab_rebal.d_clsid > power_largest  ||
        -:  739:        slab_rebal.s_clsid == slab_rebal.d_clsid)
    #####:  740:        no_go = -2;
        -:  741:
      199:  742:    s_cls = &slabclass[slab_rebal.s_clsid];
        -:  743:
      199:  744:    if (!grow_slab_list(slab_rebal.d_clsid)) {
    #####:  745:        no_go = -1;
        -:  746:    }
        -:  747:
      199:  748:    if (s_cls->slabs < 2)
        -:  749:        no_go = -3;
        -:  750:
      199:  751:    if (no_go != 0) {
    #####:  752:        pthread_mutex_unlock(&slabs_lock);
    #####:  753:        return no_go; /* Should use a wrapper function... */
        -:  754:    }
        -:  755:
        -:  756:    /* Always kill the first available slab page as it is most likely to
        -:  757:     * contain the oldest items
        -:  758:     */
      199:  759:    slab_rebal.slab_start = s_cls->slab_list[0];
      199:  760:    slab_rebal.slab_end   = (char *)slab_rebal.slab_start +
      199:  761:        (s_cls->size * s_cls->perslab);
      199:  762:    slab_rebal.slab_pos   = slab_rebal.slab_start;
      199:  763:    slab_rebal.done       = 0;
        -:  764:    // Don't need to do chunk move work if page is in global pool.
      199:  765:    if (slab_rebal.s_clsid == SLAB_GLOBAL_PAGE_POOL) {
       46:  766:        slab_rebal.done = 1;
        -:  767:    }
        -:  768:
        -:  769:    // Bit-vector to keep track of completed chunks
      199:  770:    slab_rebal.completed = (uint8_t*)calloc(s_cls->perslab,sizeof(uint8_t));
        -:  771:
      199:  772:    slab_rebalance_signal = 2;
        -:  773:
      199:  774:    if (settings.verbose > 1) {
    #####:  775:        fprintf(stderr, "Started a slab rebalance\n");
        -:  776:    }
        -:  777:
      199:  778:    pthread_mutex_unlock(&slabs_lock);
        -:  779:
      199:  780:    STATS_LOCK();
      199:  781:    stats_state.slab_reassign_running = true;
      199:  782:    STATS_UNLOCK();
        -:  783:
      199:  784:    return 0;
        -:  785:}
        -:  786:
        -:  787:/* CALLED WITH slabs_lock HELD */
     1799:  788:static void *slab_rebalance_alloc(const size_t size, unsigned int id) {
        -:  789:    slabclass_t *s_cls;
     1799:  790:    s_cls = &slabclass[slab_rebal.s_clsid];
        -:  791:    int x;
     1799:  792:    item *new_it = NULL;
        -:  793:
     2055:  794:    for (x = 0; x < s_cls->perslab; x++) {
     2055:  795:        new_it = do_slabs_alloc(size, id, SLABS_ALLOC_NO_NEWPAGE);
        -:  796:        /* check that memory isn't within the range to clear */
     2055:  797:        if (new_it == NULL) {
        -:  798:            break;
        -:  799:        }
     1628:  800:        if ((void *)new_it >= slab_rebal.slab_start
      263:  801:            && (void *)new_it < slab_rebal.slab_end) {
        -:  802:            /* Pulled something we intend to free. Mark it as freed since
        -:  803:             * we've already done the work of unlinking it from the freelist.
        -:  804:             */
      256:  805:            new_it->refcount = 0;
      256:  806:            new_it->it_flags = ITEM_SLABBED|ITEM_FETCHED;
        -:  807:#ifdef DEBUG_SLAB_MOVER
        -:  808:            memcpy(ITEM_key(new_it), "deadbeef", 8);
        -:  809:#endif
      256:  810:            new_it = NULL;
      256:  811:            slab_rebal.inline_reclaim++;
        -:  812:        } else {
        -:  813:            break;
        -:  814:        }
        -:  815:    }
     1799:  816:    return new_it;
        -:  817:}
        -:  818:
        -:  819:/* CALLED WITH slabs_lock HELD */
        -:  820:/* detaches item/chunk from freelist. */
   128531:  821:static void slab_rebalance_cut_free(slabclass_t *s_cls, item *it) {
        -:  822:    /* Ensure this was on the freelist and nothing else. */
   128531:  823:    assert(it->it_flags == ITEM_SLABBED);
   128531:  824:    if (s_cls->slots == it) {
       30:  825:        s_cls->slots = it->next;
        -:  826:    }
   128531:  827:    if (it->next) it->next->prev = it->prev;
   128531:  828:    if (it->prev) it->prev->next = it->next;
   128531:  829:    s_cls->sl_curr--;
   128531:  830:}
        -:  831:
        -:  832:enum move_status {
        -:  833:    MOVE_PASS=0, MOVE_FROM_SLAB, MOVE_FROM_LRU, MOVE_BUSY, MOVE_LOCKED
        -:  834:};
        -:  835:
        -:  836:#define SLAB_MOVE_MAX_LOOPS 1000
        -:  837:
        -:  838:/* refcount == 0 is safe since nobody can incr while item_lock is held.
        -:  839: * refcount != 0 is impossible since flags/etc can be modified in other
        -:  840: * threads. instead, note we found a busy one and bail. logic in do_item_get
        -:  841: * will prevent busy items from continuing to be busy
        -:  842: * NOTE: This is checking it_flags outside of an item lock. I believe this
        -:  843: * works since it_flags is 8 bits, and we're only ever comparing a single bit
        -:  844: * regardless. ITEM_SLABBED bit will always be correct since we're holding the
        -:  845: * lock which modifies that bit. ITEM_LINKED won't exist if we're between an
        -:  846: * item having ITEM_SLABBED removed, and the key hasn't been added to the item
        -:  847: * yet. The memory barrier from the slabs lock should order the key write and the
        -:  848: * flags to the item?
        -:  849: * If ITEM_LINKED did exist and was just removed, but we still see it, that's
        -:  850: * still safe since it will have a valid key, which we then lock, and then
        -:  851: * recheck everything.
        -:  852: * This may not be safe on all platforms; If not, slabs_alloc() will need to
        -:  853: * seed the item key while holding slabs_lock.
        -:  854: */
   131098:  855:static int slab_rebalance_move(void) {
        -:  856:    slabclass_t *s_cls;
   131098:  857:    int was_busy = 0;
   131098:  858:    int refcount = 0;
        -:  859:    uint32_t hv;
        -:  860:    void *hold_lock;
   131098:  861:    enum move_status status = MOVE_PASS;
        -:  862:
   131098:  863:    s_cls = &slabclass[slab_rebal.s_clsid];
        -:  864:    // the offset to check if completed or not
   131098:  865:    int offset = ((char*)slab_rebal.slab_pos-(char*)slab_rebal.slab_start)/(s_cls->size);
        -:  866:
        -:  867:    // skip acquiring the slabs lock for items we've already fully processed.
   131098:  868:    if (slab_rebal.completed[offset] == 0) {
   130589:  869:        pthread_mutex_lock(&slabs_lock);
   130589:  870:        hv = 0;
   130589:  871:        hold_lock = NULL;
   130589:  872:        item *it = slab_rebal.slab_pos;
        -:  873:
   130589:  874:        item_chunk *ch = NULL;
   130589:  875:        status = MOVE_PASS;
        -:  876:
   130589:  877:        if (it->it_flags & ITEM_CHUNK) {
        -:  878:            /* This chunk is a chained part of a larger item. */
      445:  879:            ch = (item_chunk *) it;
        -:  880:            /* Instead, we use the head chunk to find the item and effectively
        -:  881:             * lock the entire structure. If a chunk has ITEM_CHUNK flag, its
        -:  882:             * head cannot be slabbed, so the normal routine is safe. */
      445:  883:            it = ch->head;
      445:  884:            assert(it->it_flags & ITEM_CHUNKED);
        -:  885:        }
        -:  886:
        -:  887:        /* ITEM_FETCHED when ITEM_SLABBED is overloaded to mean we've cleared
        -:  888:         * the chunk for move. Only these two flags should exist.
        -:  889:         */
   130589:  890:        if (it->it_flags != (ITEM_SLABBED|ITEM_FETCHED)) {
        -:  891:            /* ITEM_SLABBED can only be added/removed under the slabs_lock */
   130330:  892:            if (it->it_flags & ITEM_SLABBED) {
   128531:  893:                assert(ch == NULL);
   128531:  894:                slab_rebalance_cut_free(s_cls, it);
   128531:  895:                status = MOVE_FROM_SLAB;
     1799:  896:            } else if ((it->it_flags & ITEM_LINKED) != 0) {
        -:  897:                /* If it doesn't have ITEM_SLABBED, the item could be in any
        -:  898:                 * state on its way to being freed or written to. If no
        -:  899:                 * ITEM_SLABBED, but it's had ITEM_LINKED, it must be active
        -:  900:                 * and have the key written to it already.
        -:  901:                 */
     1799:  902:                hv = hash(ITEM_key(it), it->nkey);
     1799:  903:                if ((hold_lock = item_trylock(hv)) == NULL) {
        -:  904:                    status = MOVE_LOCKED;
        -:  905:                } else {
     1799:  906:                    bool is_linked = (it->it_flags & ITEM_LINKED);
     1799:  907:                    refcount = refcount_incr(it);
     1799:  908:                    if (refcount == 2) { /* item is linked but not busy */
        -:  909:                        /* Double check ITEM_LINKED flag here, since we're
        -:  910:                         * past a memory barrier from the mutex. */
     1799:  911:                        if (is_linked) {
        -:  912:                            status = MOVE_FROM_LRU;
        -:  913:                        } else {
        -:  914:                            /* refcount == 1 + !ITEM_LINKED means the item is being
        -:  915:                             * uploaded to, or was just unlinked but hasn't been freed
        -:  916:                             * yet. Let it bleed off on its own and try again later */
        -:  917:                            status = MOVE_BUSY;
        -:  918:                        }
    #####:  919:                    } else if (refcount > 2 && is_linked) {
        -:  920:                        // TODO: Mark items for delete/rescue and process
        -:  921:                        // outside of the main loop.
    #####:  922:                        if (slab_rebal.busy_loops > SLAB_MOVE_MAX_LOOPS) {
    #####:  923:                            slab_rebal.busy_deletes++;
        -:  924:                            // Only safe to hold slabs lock because refcount
        -:  925:                            // can't drop to 0 until we release item lock.
    #####:  926:                            STORAGE_delete(storage, it);
    #####:  927:                            pthread_mutex_unlock(&slabs_lock);
    #####:  928:                            do_item_unlink(it, hv);
    #####:  929:                            pthread_mutex_lock(&slabs_lock);
        -:  930:                        }
        -:  931:                        status = MOVE_BUSY;
        -:  932:                    } else {
    #####:  933:                        if (settings.verbose > 2) {
    #####:  934:                            fprintf(stderr, "Slab reassign hit a busy item: refcount: %d (%d -> %d)\n",
        -:  935:                                it->refcount, slab_rebal.s_clsid, slab_rebal.d_clsid);
        -:  936:                        }
        -:  937:                        status = MOVE_BUSY;
        -:  938:                    }
        -:  939:                    /* Item lock must be held while modifying refcount */
        -:  940:                    if (status == MOVE_BUSY) {
    #####:  941:                        refcount_decr(it);
    #####:  942:                        item_trylock_unlock(hold_lock);
        -:  943:                    }
        -:  944:                }
        -:  945:            } else {
        -:  946:                /* See above comment. No ITEM_SLABBED or ITEM_LINKED. Mark
        -:  947:                 * busy and wait for item to complete its upload. */
        -:  948:                status = MOVE_BUSY;
        -:  949:            }
        -:  950:        }
        -:  951:
   130589:  952:        int save_item = 0;
   130589:  953:        item *new_it = NULL;
   130589:  954:        size_t ntotal = 0;
   130589:  955:        switch (status) {
     1799:  956:            case MOVE_FROM_LRU:
        -:  957:                /* Lock order is LRU locks -> slabs_lock. unlink uses LRU lock.
        -:  958:                 * We only need to hold the slabs_lock while initially looking
        -:  959:                 * at an item, and at this point we have an exclusive refcount
        -:  960:                 * (2) + the item is locked. Drop slabs lock, drop item to
        -:  961:                 * refcount 1 (just our own, then fall through and wipe it
        -:  962:                 */
        -:  963:                /* Check if expired or flushed */
     1799:  964:                ntotal = ITEM_ntotal(it);
        -:  965:#ifdef EXTSTORE
     1799:  966:                if (it->it_flags & ITEM_HDR) {
    #####:  967:                    ntotal = (ntotal - it->nbytes) + sizeof(item_hdr);
        -:  968:                }
        -:  969:#endif
        -:  970:                /* REQUIRES slabs_lock: CHECK FOR cls->sl_curr > 0 */
     1799:  971:                if (ch == NULL && (it->it_flags & ITEM_CHUNKED)) {
        -:  972:                    /* Chunked should be identical to non-chunked, except we need
        -:  973:                     * to swap out ntotal for the head-chunk-total. */
    #####:  974:                    ntotal = s_cls->size;
        -:  975:                }
     1799:  976:                if ((it->exptime != 0 && it->exptime < current_time)
     1799:  977:                    || item_is_flushed(it)) {
        -:  978:                    /* Expired, don't save. */
        -:  979:                    save_item = 0;
     3153:  980:                } else if (ch == NULL &&
     1354:  981:                        (new_it = slab_rebalance_alloc(ntotal, slab_rebal.s_clsid)) == NULL) {
        -:  982:                    /* Not a chunk of an item, and nomem. */
      171:  983:                    save_item = 0;
      171:  984:                    slab_rebal.evictions_nomem++;
     2073:  985:                } else if (ch != NULL &&
      445:  986:                        (new_it = slab_rebalance_alloc(s_cls->size, slab_rebal.s_clsid)) == NULL) {
        -:  987:                    /* Is a chunk of an item, and nomem. */
      256:  988:                    save_item = 0;
      256:  989:                    slab_rebal.evictions_nomem++;
        -:  990:                } else {
        -:  991:                    /* Was whatever it was, and we have memory for it. */
        -:  992:                    save_item = 1;
        -:  993:                }
     1799:  994:                pthread_mutex_unlock(&slabs_lock);
     1799:  995:                if (save_item) {
     1372:  996:                    if (ch == NULL) {
     1183:  997:                        assert((new_it->it_flags & ITEM_CHUNKED) == 0);
        -:  998:                        /* if free memory, memcpy. clear prev/next/h_bucket */
     1183:  999:                        memcpy(new_it, it, ntotal);
     1183: 1000:                        new_it->prev = 0;
     1183: 1001:                        new_it->next = 0;
     1183: 1002:                        new_it->h_next = 0;
        -: 1003:                        /* These are definitely required. else fails assert */
     1183: 1004:                        new_it->it_flags &= ~ITEM_LINKED;
     1183: 1005:                        new_it->refcount = 0;
     1183: 1006:                        do_item_replace(it, new_it, hv);
        -: 1007:                        /* Need to walk the chunks and repoint head  */
     1183: 1008:                        if (new_it->it_flags & ITEM_CHUNKED) {
    #####: 1009:                            item_chunk *fch = (item_chunk *) ITEM_schunk(new_it);
    #####: 1010:                            fch->next->prev = fch;
    #####: 1011:                            while (fch) {
    #####: 1012:                                fch->head = new_it;
    #####: 1013:                                fch = fch->next;
        -: 1014:                            }
        -: 1015:                        }
     1183: 1016:                        it->refcount = 0;
     1183: 1017:                        it->it_flags = ITEM_SLABBED|ITEM_FETCHED;
        -: 1018:#ifdef DEBUG_SLAB_MOVER
        -: 1019:                        memcpy(ITEM_key(it), "deadbeef", 8);
        -: 1020:#endif
     1183: 1021:                        slab_rebal.rescues++;
        -: 1022:                    } else {
      189: 1023:                        item_chunk *nch = (item_chunk *) new_it;
        -: 1024:                        /* Chunks always have head chunk (the main it) */
      189: 1025:                        ch->prev->next = nch;
      189: 1026:                        if (ch->next)
       19: 1027:                            ch->next->prev = nch;
      378: 1028:                        memcpy(nch, ch, ch->used + sizeof(item_chunk));
      189: 1029:                        ch->refcount = 0;
      189: 1030:                        ch->it_flags = ITEM_SLABBED|ITEM_FETCHED;
      189: 1031:                        slab_rebal.chunk_rescues++;
        -: 1032:#ifdef DEBUG_SLAB_MOVER
        -: 1033:                        memcpy(ITEM_key((item *)ch), "deadbeef", 8);
        -: 1034:#endif
      189: 1035:                        refcount_decr(it);
        -: 1036:                    }
     1372: 1037:                    slab_rebal.completed[offset] = 1;
        -: 1038:                } else {
        -: 1039:                    /* unlink and mark as done if it's not
        -: 1040:                     * a chunked item as they require more book-keeping) */
      427: 1041:                    STORAGE_delete(storage, it);
      427: 1042:                    if (!ch && (it->it_flags & ITEM_CHUNKED) == 0) {
      171: 1043:                        do_item_unlink(it, hv);
      171: 1044:                        it->it_flags = ITEM_SLABBED|ITEM_FETCHED;
      171: 1045:                        it->refcount = 0;
        -: 1046:#ifdef DEBUG_SLAB_MOVER
        -: 1047:                        memcpy(ITEM_key(it), "deadbeef", 8);
        -: 1048:#endif
      171: 1049:                        slab_rebal.completed[offset] = 1;
        -: 1050:                    } else {
      256: 1051:                        ntotal = ITEM_ntotal(it);
      256: 1052:                        do_item_unlink(it, hv);
      512: 1053:                        slabs_free(it, ntotal, slab_rebal.s_clsid);
        -: 1054:                        /* Swing around again later to remove it from the freelist. */
      256: 1055:                        slab_rebal.busy_items++;
      256: 1056:                        was_busy++;
        -: 1057:                    }
        -: 1058:
        -: 1059:                }
     1799: 1060:                item_trylock_unlock(hold_lock);
     1799: 1061:                pthread_mutex_lock(&slabs_lock);
        -: 1062:                /* Always remove the ntotal, as we added it in during
        -: 1063:                 * do_slabs_alloc() when copying the item.
        -: 1064:                 */
     1799: 1065:                break;
   128531: 1066:            case MOVE_FROM_SLAB:
   128531: 1067:                slab_rebal.completed[offset] = 1;
   128531: 1068:                it->refcount = 0;
   128531: 1069:                it->it_flags = ITEM_SLABBED|ITEM_FETCHED;
        -: 1070:#ifdef DEBUG_SLAB_MOVER
        -: 1071:                memcpy(ITEM_key(it), "deadbeef", 8);
        -: 1072:#endif
   128531: 1073:                break;
    #####: 1074:            case MOVE_BUSY:
        -: 1075:            case MOVE_LOCKED:
    #####: 1076:                slab_rebal.busy_items++;
    #####: 1077:                was_busy++;
    #####: 1078:                break;
        -: 1079:            case MOVE_PASS:
        -: 1080:                break;
        -: 1081:        }
        -: 1082:
   130589: 1083:        pthread_mutex_unlock(&slabs_lock);
        -: 1084:    }
        -: 1085:
        -: 1086:    // Note: slab_rebal.* is occasionally protected under slabs_lock, but
        -: 1087:    // the mover thread is the only user while active: so it's only necessary
        -: 1088:    // for start/stop synchronization.
   131098: 1089:    slab_rebal.slab_pos = (char *)slab_rebal.slab_pos + s_cls->size;
        -: 1090:
   131098: 1091:    if (slab_rebal.slab_pos >= slab_rebal.slab_end) {
        -: 1092:        /* Some items were busy, start again from the top */
      156: 1093:        if (slab_rebal.busy_items) {
        3: 1094:            slab_rebal.slab_pos = slab_rebal.slab_start;
        3: 1095:            STATS_LOCK();
        3: 1096:            stats.slab_reassign_busy_items += slab_rebal.busy_items;
        3: 1097:            STATS_UNLOCK();
        3: 1098:            slab_rebal.busy_items = 0;
        3: 1099:            slab_rebal.busy_loops++;
        -: 1100:        } else {
      153: 1101:            slab_rebal.done++;
        -: 1102:        }
        -: 1103:    }
        -: 1104:
   131098: 1105:    return was_busy;
        -: 1106:}
        -: 1107:
      199: 1108:static void slab_rebalance_finish(void) {
        -: 1109:    slabclass_t *s_cls;
        -: 1110:    slabclass_t *d_cls;
        -: 1111:    int x;
        -: 1112:    uint32_t rescues;
        -: 1113:    uint32_t evictions_nomem;
        -: 1114:    uint32_t inline_reclaim;
        -: 1115:    uint32_t chunk_rescues;
        -: 1116:    uint32_t busy_deletes;
        -: 1117:
      199: 1118:    pthread_mutex_lock(&slabs_lock);
        -: 1119:
      199: 1120:    s_cls = &slabclass[slab_rebal.s_clsid];
      199: 1121:    d_cls = &slabclass[slab_rebal.d_clsid];
        -: 1122:
        -: 1123:#ifdef DEBUG_SLAB_MOVER
        -: 1124:    /* If the algorithm is broken, live items can sneak in. */
        -: 1125:    slab_rebal.slab_pos = slab_rebal.slab_start;
        -: 1126:    while (1) {
        -: 1127:        item *it = slab_rebal.slab_pos;
        -: 1128:        assert(it->it_flags == (ITEM_SLABBED|ITEM_FETCHED));
        -: 1129:        assert(memcmp(ITEM_key(it), "deadbeef", 8) == 0);
        -: 1130:        it->it_flags = ITEM_SLABBED|ITEM_FETCHED;
        -: 1131:        slab_rebal.slab_pos = (char *)slab_rebal.slab_pos + s_cls->size;
        -: 1132:        if (slab_rebal.slab_pos >= slab_rebal.slab_end)
        -: 1133:            break;
        -: 1134:    }
        -: 1135:#endif
        -: 1136:
        -: 1137:    /* At this point the stolen slab is completely clear.
        -: 1138:     * We always kill the "first"/"oldest" slab page in the slab_list, so
        -: 1139:     * shuffle the page list backwards and decrement.
        -: 1140:     */
      199: 1141:    s_cls->slabs--;
     3867: 1142:    for (x = 0; x < s_cls->slabs; x++) {
     3668: 1143:        s_cls->slab_list[x] = s_cls->slab_list[x+1];
        -: 1144:    }
        -: 1145:
      199: 1146:    d_cls->slab_list[d_cls->slabs++] = slab_rebal.slab_start;
        -: 1147:    /* Don't need to split the page into chunks if we're just storing it */
      199: 1148:    if (slab_rebal.d_clsid > SLAB_GLOBAL_PAGE_POOL) {
      126: 1149:        memset(slab_rebal.slab_start, 0, (size_t)settings.slab_page_size);
       63: 1150:        split_slab_page_into_freelist(slab_rebal.slab_start,
       63: 1151:            slab_rebal.d_clsid);
      136: 1152:    } else if (slab_rebal.d_clsid == SLAB_GLOBAL_PAGE_POOL) {
        -: 1153:        /* memset just enough to signal restart handler to skip */
      272: 1154:        memset(slab_rebal.slab_start, 0, sizeof(item));
        -: 1155:        /* mem_malloc'ed might be higher than mem_limit. */
      136: 1156:        mem_limit_reached = false;
      136: 1157:        memory_release();
        -: 1158:    }
        -: 1159:
      199: 1160:    slab_rebal.busy_loops = 0;
      199: 1161:    slab_rebal.done       = 0;
      199: 1162:    slab_rebal.s_clsid    = 0;
      199: 1163:    slab_rebal.d_clsid    = 0;
      199: 1164:    slab_rebal.slab_start = NULL;
      199: 1165:    slab_rebal.slab_end   = NULL;
      199: 1166:    slab_rebal.slab_pos   = NULL;
      199: 1167:    evictions_nomem    = slab_rebal.evictions_nomem;
      199: 1168:    inline_reclaim = slab_rebal.inline_reclaim;
      199: 1169:    rescues   = slab_rebal.rescues;
      199: 1170:    chunk_rescues = slab_rebal.chunk_rescues;
      199: 1171:    busy_deletes = slab_rebal.busy_deletes;
      199: 1172:    slab_rebal.evictions_nomem    = 0;
      199: 1173:    slab_rebal.inline_reclaim = 0;
      199: 1174:    slab_rebal.rescues  = 0;
      199: 1175:    slab_rebal.chunk_rescues = 0;
      199: 1176:    slab_rebal.busy_deletes = 0;
        -: 1177:
      199: 1178:    slab_rebalance_signal = 0;
        -: 1179:
      199: 1180:    free(slab_rebal.completed);
      199: 1181:    pthread_mutex_unlock(&slabs_lock);
        -: 1182:
      199: 1183:    STATS_LOCK();
      199: 1184:    stats.slabs_moved++;
      199: 1185:    stats.slab_reassign_rescues += rescues;
      199: 1186:    stats.slab_reassign_evictions_nomem += evictions_nomem;
      199: 1187:    stats.slab_reassign_inline_reclaim += inline_reclaim;
      199: 1188:    stats.slab_reassign_chunk_rescues += chunk_rescues;
      199: 1189:    stats.slab_reassign_busy_deletes += busy_deletes;
      199: 1190:    stats_state.slab_reassign_running = false;
      199: 1191:    STATS_UNLOCK();
        -: 1192:
      199: 1193:    if (settings.verbose > 1) {
    #####: 1194:        fprintf(stderr, "finished a slab move\n");
        -: 1195:    }
      199: 1196:}
        -: 1197:
        -: 1198:/* Slab mover thread.
        -: 1199: * Sits waiting for a condition to jump off and shovel some memory about
        -: 1200: */
      100: 1201:static void *slab_rebalance_thread(void *arg) {
      100: 1202:    int was_busy = 0;
      100: 1203:    int backoff_timer = 1;
      100: 1204:    int backoff_max = 1000;
        -: 1205:    /* So we first pass into cond_wait with the mutex held */
      100: 1206:    mutex_lock(&slabs_rebalance_lock);
        -: 1207:
        -: 1208:    /* Must finish moving page before stopping */
   131498: 1209:    while (slab_rebalance_signal || do_run_slab_rebalance_thread) {
   131397: 1210:        if (slab_rebalance_signal == 1) {
      199: 1211:            if (slab_rebalance_start() < 0) {
        -: 1212:                /* Handle errors with more specificity as required. */
    #####: 1213:                slab_rebalance_signal = 0;
        -: 1214:            }
        -: 1215:
        -: 1216:            was_busy = 0;
   131198: 1217:        } else if (slab_rebalance_signal && slab_rebal.slab_start != NULL) {
   131098: 1218:            was_busy = slab_rebalance_move();
        -: 1219:        }
        -: 1220:
   131397: 1221:        if (slab_rebal.done) {
      199: 1222:            slab_rebalance_finish();
   131198: 1223:        } else if (was_busy) {
        -: 1224:            /* Stuck waiting for some items to unlock, so slow down a bit
        -: 1225:             * to give them a chance to free up */
      256: 1226:            usleep(backoff_timer);
      256: 1227:            backoff_timer = backoff_timer * 2;
      256: 1228:            if (backoff_timer > backoff_max)
      247: 1229:                backoff_timer = backoff_max;
        -: 1230:        }
        -: 1231:
   131397: 1232:        if (slab_rebalance_signal == 0) {
        -: 1233:            /* always hold this lock while we're running */
      299: 1234:            pthread_cond_wait(&slab_rebalance_cond, &slabs_rebalance_lock);
        -: 1235:        }
        -: 1236:    }
        -: 1237:
        -: 1238:    // TODO: cancel in-flight slab page move
        1: 1239:    mutex_unlock(&slabs_rebalance_lock);
        1: 1240:    return NULL;
        -: 1241:}
        -: 1242:
        -: 1243:/* Iterate at most once through the slab classes and pick a "random" source.
        -: 1244: * I like this better than calling rand() since rand() is slow enough that we
        -: 1245: * can just check all of the classes once instead.
        -: 1246: */
        -: 1247:static int slabs_reassign_pick_any(int dst) {
        -: 1248:    static int cur = POWER_SMALLEST - 1;
    #####: 1249:    int tries = power_largest - POWER_SMALLEST + 1;
    #####: 1250:    for (; tries > 0; tries--) {
    #####: 1251:        cur++;
    #####: 1252:        if (cur > power_largest)
    #####: 1253:            cur = POWER_SMALLEST;
    #####: 1254:        if (cur == dst)
    #####: 1255:            continue;
    #####: 1256:        if (slabclass[cur].slabs > 1) {
        -: 1257:            return cur;
        -: 1258:        }
        -: 1259:    }
        -: 1260:    return -1;
        -: 1261:}
        -: 1262:
      201: 1263:static enum reassign_result_type do_slabs_reassign(int src, int dst) {
      201: 1264:    bool nospare = false;
      201: 1265:    if (slab_rebalance_signal != 0)
        -: 1266:        return REASSIGN_RUNNING;
        -: 1267:
      201: 1268:    if (src == dst)
        -: 1269:        return REASSIGN_SRC_DST_SAME;
        -: 1270:
        -: 1271:    /* Special indicator to choose ourselves. */
      201: 1272:    if (src == -1) {
        -: 1273:        src = slabs_reassign_pick_any(dst);
        -: 1274:        /* TODO: If we end up back at -1, return a new error type */
        -: 1275:    }
        -: 1276:
      201: 1277:    if (src < SLAB_GLOBAL_PAGE_POOL || src > power_largest ||
      201: 1278:        dst < SLAB_GLOBAL_PAGE_POOL || dst > power_largest)
        -: 1279:        return REASSIGN_BADCLASS;
        -: 1280:
      201: 1281:    pthread_mutex_lock(&slabs_lock);
      201: 1282:    if (slabclass[src].slabs < 2)
        2: 1283:        nospare = true;
      201: 1284:    pthread_mutex_unlock(&slabs_lock);
      201: 1285:    if (nospare)
        -: 1286:        return REASSIGN_NOSPARE;
        -: 1287:
      199: 1288:    slab_rebal.s_clsid = src;
      199: 1289:    slab_rebal.d_clsid = dst;
        -: 1290:
      199: 1291:    slab_rebalance_signal = 1;
      199: 1292:    pthread_cond_signal(&slab_rebalance_cond);
        -: 1293:
      199: 1294:    return REASSIGN_OK;
        -: 1295:}
        -: 1296:
      222: 1297:enum reassign_result_type slabs_reassign(int src, int dst) {
        -: 1298:    enum reassign_result_type ret;
      222: 1299:    if (pthread_mutex_trylock(&slabs_rebalance_lock) != 0) {
        -: 1300:        return REASSIGN_RUNNING;
        -: 1301:    }
      201: 1302:    ret = do_slabs_reassign(src, dst);
      201: 1303:    pthread_mutex_unlock(&slabs_rebalance_lock);
      201: 1304:    return ret;
        -: 1305:}
        -: 1306:
        -: 1307:/* If we hold this lock, rebalancer can't wake up or move */
        1: 1308:void slabs_rebalancer_pause(void) {
        1: 1309:    pthread_mutex_lock(&slabs_rebalance_lock);
        1: 1310:}
        -: 1311:
        1: 1312:void slabs_rebalancer_resume(void) {
        1: 1313:    pthread_mutex_unlock(&slabs_rebalance_lock);
        1: 1314:}
        -: 1315:
        -: 1316:static pthread_t rebalance_tid;
        -: 1317:
      100: 1318:int start_slab_maintenance_thread(void) {
        -: 1319:    int ret;
      100: 1320:    slab_rebalance_signal = 0;
      100: 1321:    slab_rebal.slab_start = NULL;
        -: 1322:
      100: 1323:    if ((ret = pthread_create(&rebalance_tid, NULL,
        -: 1324:                              slab_rebalance_thread, NULL)) != 0) {
    #####: 1325:        fprintf(stderr, "Can't create rebal thread: %s\n", strerror(ret));
    #####: 1326:        return -1;
        -: 1327:    }
        -: 1328:    return 0;
        -: 1329:}
        -: 1330:
        -: 1331:/* The maintenance thread is on a sleep/loop cycle, so it should join after a
        -: 1332: * short wait */
        1: 1333:void stop_slab_maintenance_thread(void) {
        1: 1334:    mutex_lock(&slabs_rebalance_lock);
        1: 1335:    do_run_slab_rebalance_thread = 0;
        1: 1336:    pthread_cond_signal(&slab_rebalance_cond);
        1: 1337:    pthread_mutex_unlock(&slabs_rebalance_lock);
        -: 1338:
        -: 1339:    /* Wait for the maintenance thread to stop */
        1: 1340:    pthread_join(rebalance_tid, NULL);
        1: 1341:}
